================================================================================
                            Inicio da execução
                             Horário: 20:14:28
 ================================================================================


================================================================================
              Nesse momento a lista está com os seguintes dados:

                      Ninguém agraciado no momento 
                           Horário: 20:14:28
 ================================================================================


================================================================================
                Usuário escolhe a opção de cadastrar pessoas
                           Horário: 20:14:31
===============================================================================


================================================================================
              Nesse momento a lista está com os seguintes dados:

                      Ninguém agraciado no momento 
                           Horário: 20:15:5
 ================================================================================


================================================================================
              Usuário escolhe a opção de mostrar as pessoas já
               cadastradas que estão na fila para pegar o      
                                 ingresso
               Horário: 20:15:8
================================================================================


================================================================================
              Nesse momento a lista está com os seguintes dados:

                      Ninguém agraciado no momento 
                           Horário: 20:15:8
 ================================================================================


================================================================================
              Usuário pede para mostrar a lista dos agraciados
                          Horário: 20:15:13
================================================================================


================================================================================
              Nesse momento a lista está com os seguintes dados:

                      Ninguém agraciado no momento 
                           Horário: 20:15:13
 ================================================================================


================================================================================
                Usuário pede para mostrar a Pilha de ingressos
                            Horário: 20:15:16
================================================================================


================================================================================
              Nesse momento a lista está com os seguintes dados:

                      Ninguém agraciado no momento 
                           Horário: 20:15:16
 ================================================================================


================================================================================
               BilúBilú entrega o ingresso da sala 4 para o(a) Ghabriel
                                Horário: 20:15:19
================================================================================


================================================================================
              Nesse momento a lista está com os seguintes dados:

                           Nome: Ghabriel
                           Email: ghabriel@ucl.br
                           Telefone: 27996546441
                           Número da Sala: 4

                           Horário: 20:15:19
 ================================================================================


================================================================================
               BilúBilú entrega o ingresso da sala 5 para o(a) Lucas
                                Horário: 20:15:20
================================================================================


================================================================================
              Nesse momento a lista está com os seguintes dados:

                           Nome: Lucas
                           Email: lucas@ucl.br
                           Telefone: 27998541236
                           Número da Sala: 5

                           Nome: Ghabriel
                           Email: ghabriel@ucl.br
                           Telefone: 27996546441
                           Número da Sala: 4

                           Horário: 20:15:20
 ================================================================================


================================================================================
               BilúBilú entrega o ingresso da sala 1 para o(a) Luan
                                Horário: 20:15:21
================================================================================


================================================================================
              Nesse momento a lista está com os seguintes dados:

                           Nome: Luan
                           Email: luan@ucl.br
                           Telefone: 27995412364
                           Número da Sala: 1

                           Nome: Lucas
                           Email: lucas@ucl.br
                           Telefone: 27998541236
                           Número da Sala: 5

                           Nome: Ghabriel
                           Email: ghabriel@ucl.br
                           Telefone: 27996546441
                           Número da Sala: 4

                           Horário: 20:15:21
 ================================================================================


================================================================================
            Usuário tentou entregar um ingresso com ninguém na fila
================================================================================


================================================================================
              Nesse momento a lista está com os seguintes dados:

                           Nome: Luan
                           Email: luan@ucl.br
                           Telefone: 27995412364
                           Número da Sala: 1

                           Nome: Lucas
                           Email: lucas@ucl.br
                           Telefone: 27998541236
                           Número da Sala: 5

                           Nome: Ghabriel
                           Email: ghabriel@ucl.br
                           Telefone: 27996546441
                           Número da Sala: 4

                           Horário: 20:15:23
 ================================================================================


================================================================================
                          Usuário encerra o sistema
                             Horário: 20:15:26
================================================================================
